digraph ntw{
layout=neato
graph [epsilon=0.0001,overlap="false",splines="true"];
node [shape=record]
   1 [style=filled fillcolor=grey label="{0|0}|{0|5}"];
   2 [style=filled fillcolor=grey label="{0|1}|{0|4}"];
   3 [style=filled fillcolor=grey label="{0|2}|{0|3}"];
   4 [style=filled fillcolor=grey label="{0|3}|{0|2}"];
   5 [style=filled fillcolor=grey label="{0|4}|{0|1}"];
   6 [style=filled fillcolor=grey label="{0|5}|{0|0}"];
   7 [style=filled fillcolor=grey label="{0|0}|{1|4}"];
   8 [style=filled fillcolor=grey label="{0|1}|{1|3}"];
   9 [style=filled fillcolor=grey label="{0|2}|{1|2}"];
  10 [style=filled fillcolor=grey label="{0|3}|{1|1}"];
  11 [style=filled fillcolor=grey label="{0|4}|{1|0}"];
  12 [style=filled fillcolor=grey label="{0|0}|{2|3}"];
  13 [style=filled fillcolor=grey label="{0|1}|{2|2}"];
  14 [style=filled fillcolor=grey label="{0|2}|{2|1}"];
  15 [style=filled fillcolor=grey label="{0|3}|{2|0}"];
  16 [style=filled fillcolor=grey label="{0|0}|{3|2}"];
  17 [style=filled fillcolor=grey label="{0|1}|{3|1}"];
  18 [style=filled fillcolor=grey label="{0|2}|{3|0}"];
  19 [style=filled fillcolor=grey label="{0|0}|{4|1}"];
  20 [style=filled fillcolor=grey label="{0|1}|{4|0}"];
  21 [style=filled fillcolor=grey label="{0|0}|{5|0}"];
  22 [style=filled fillcolor=grey label="{1|0}|{0|4}"];
  23 [style=filled fillcolor=lightblue label="{1|1}|{0|3}"];
  24 [style=filled fillcolor=lightblue label="{1|2}|{0|2}"];
  25 [style=filled fillcolor=lightblue label="{1|3}|{0|1}"];
  26 [style=filled fillcolor=lightblue label="{1|4}|{0|0}"];
  27 [style=filled fillcolor=lightblue label="{1|0}|{1|3}"];
  28 [style=filled fillcolor=lightblue label="{1|1}|{1|2}"];
  29 [style=filled fillcolor=lightblue label="{1|2}|{1|1}"];
  30 [style=filled fillcolor=lightblue label="{1|3}|{1|0}"];
  31 [style=filled fillcolor=lightblue label="{1|0}|{2|2}"];
  32 [style=filled fillcolor=lightblue label="{1|1}|{2|1}"];
  33 [style=filled fillcolor=lightblue label="{1|2}|{2|0}"];
  34 [style=filled fillcolor=lightblue label="{1|0}|{3|1}"];
  35 [style=filled fillcolor=lightblue label="{1|1}|{3|0}"];
  37 [style=filled fillcolor=lightblue label="{2|0}|{0|3}"];
  38 [style=filled fillcolor=lightblue label="{2|1}|{0|2}"];
  39 [style=filled fillcolor=lightblue label="{2|2}|{0|1}"];
  40 [style=filled fillcolor=lightblue label="{2|3}|{0|0}"];
  41 [style=filled fillcolor=lightblue label="{2|0}|{1|2}"];
  42 [style=filled fillcolor=lightblue label="{2|1}|{1|1}"];
  43 [style=filled fillcolor=lightblue label="{2|2}|{1|0}"];
  44 [style=filled fillcolor=lightblue label="{2|0}|{2|1}"];
  45 [style=filled fillcolor=lightblue label="{2|1}|{2|0}"];
  47 [style=filled fillcolor=lightblue label="{3|0}|{0|2}"];
  48 [style=filled fillcolor=lightblue label="{3|1}|{0|1}"];
  49 [style=filled fillcolor=lightblue label="{3|2}|{0|0}"];
  50 [style=filled fillcolor=lightblue label="{3|0}|{1|1}"];
  51 [style=filled fillcolor=lightblue label="{3|1}|{1|0}"];
  53 [style=filled fillcolor=lightblue label="{4|0}|{0|1}"];
  54 [style=filled fillcolor=lightblue label="{4|1}|{0|0}"];
  21 [label="{0|0}|{5|0}"];
  36 [label="{1|0}|{4|0}"];
  46 [label="{2|0}|{3|0}"];
  52 [label="{3|0}|{2|0}"];
  55 [label="{4|0}|{1|0}"];
  56 [label="{5|0}|{0|0}"];
   2 ->    1 [penwidth=1];
   3 ->    2 [penwidth=1];
   4 ->    3 [penwidth=1];
   5 ->    4 [penwidth=1];
   6 ->    5 [penwidth=1];
   7 ->    2 [penwidth=3];
   8 ->    3 [penwidth=3];
   8 ->    7 [penwidth=1];
   9 ->    4 [penwidth=3];
   9 ->    8 [penwidth=1];
  10 ->    5 [penwidth=3];
  10 ->    9 [penwidth=1];
  11 ->    6 [penwidth=3];
  11 ->   10 [penwidth=1];
  12 ->    8 [penwidth=3];
  13 ->    9 [penwidth=3];
  13 ->   12 [penwidth=1];
  14 ->   10 [penwidth=3];
  14 ->   13 [penwidth=1];
  15 ->   11 [penwidth=3];
  15 ->   14 [penwidth=1];
  16 ->   13 [penwidth=3];
  17 ->   14 [penwidth=3];
  17 ->   16 [penwidth=1];
  18 ->   15 [penwidth=3];
  18 ->   17 [penwidth=1];
  19 ->   17 [penwidth=3];
  20 ->   18 [penwidth=3];
  20 ->   19 [penwidth=1];
  21 ->   20 [penwidth=3];
  22 ->    7 [penwidth=1];
  22 ->   20 [penwidth=3];
  23 ->    8 [penwidth=1];
  23 ->   22 [penwidth=1];
  23 ->   35 [penwidth=3];
  24 ->    9 [penwidth=1];
  24 ->   23 [penwidth=1];
  24 ->   45 [penwidth=3];
  25 ->   10 [penwidth=1];
  25 ->   24 [penwidth=1];
  25 ->   51 [penwidth=3];
  26 ->   11 [penwidth=1];
  26 ->   25 [penwidth=1];
  26 ->   54 [penwidth=3];
  27 ->   12 [penwidth=1];
  27 ->   20 [penwidth=3];
  27 ->   23 [penwidth=3];
  28 ->   13 [penwidth=1];
  28 ->   24 [penwidth=3];
  28 ->   27 [penwidth=1];
  28 ->   35 [penwidth=3];
  29 ->   14 [penwidth=1];
  29 ->   25 [penwidth=3];
  29 ->   28 [penwidth=1];
  29 ->   45 [penwidth=3];
  30 ->   15 [penwidth=1];
  30 ->   26 [penwidth=3];
  30 ->   29 [penwidth=1];
  30 ->   51 [penwidth=3];
  31 ->   16 [penwidth=1];
  31 ->   20 [penwidth=3];
  31 ->   28 [penwidth=3];
  32 ->   17 [penwidth=1];
  32 ->   29 [penwidth=3];
  32 ->   31 [penwidth=1];
  32 ->   35 [penwidth=3];
  33 ->   18 [penwidth=1];
  33 ->   30 [penwidth=3];
  33 ->   32 [penwidth=1];
  33 ->   45 [penwidth=3];
  34 ->   19 [penwidth=1];
  34 ->   20 [penwidth=3];
  34 ->   32 [penwidth=3];
  35 ->   20 [penwidth=1];
  35 ->   33 [penwidth=3];
  35 ->   34 [penwidth=1];
  35 ->   35 [penwidth=3];
  36 ->   20 [penwidth=3];
  36 ->   21 [penwidth=1];
  36 ->   35 [penwidth=3];
  37 ->   27 [penwidth=1];
  37 ->   35 [penwidth=3];
  38 ->   28 [penwidth=1];
  38 ->   37 [penwidth=1];
  38 ->   45 [penwidth=3];
  39 ->   29 [penwidth=1];
  39 ->   38 [penwidth=1];
  39 ->   51 [penwidth=3];
  40 ->   30 [penwidth=1];
  40 ->   39 [penwidth=1];
  40 ->   54 [penwidth=3];
  41 ->   31 [penwidth=1];
  41 ->   35 [penwidth=3];
  41 ->   38 [penwidth=3];
  42 ->   32 [penwidth=1];
  42 ->   39 [penwidth=3];
  42 ->   41 [penwidth=1];
  42 ->   45 [penwidth=3];
  43 ->   33 [penwidth=1];
  43 ->   40 [penwidth=3];
  43 ->   42 [penwidth=1];
  43 ->   51 [penwidth=3];
  44 ->   34 [penwidth=1];
  44 ->   35 [penwidth=3];
  44 ->   42 [penwidth=3];
  45 ->   35 [penwidth=1];
  45 ->   43 [penwidth=3];
  45 ->   44 [penwidth=1];
  45 ->   45 [penwidth=3];
  46 ->   35 [penwidth=3];
  46 ->   36 [penwidth=1];
  46 ->   45 [penwidth=3];
  47 ->   41 [penwidth=1];
  47 ->   45 [penwidth=3];
  48 ->   42 [penwidth=1];
  48 ->   47 [penwidth=1];
  48 ->   51 [penwidth=3];
  49 ->   43 [penwidth=1];
  49 ->   48 [penwidth=1];
  49 ->   54 [penwidth=3];
  50 ->   44 [penwidth=1];
  50 ->   45 [penwidth=3];
  50 ->   48 [penwidth=3];
  51 ->   45 [penwidth=1];
  51 ->   49 [penwidth=3];
  51 ->   50 [penwidth=1];
  51 ->   51 [penwidth=3];
  52 ->   45 [penwidth=3];
  52 ->   46 [penwidth=1];
  52 ->   51 [penwidth=3];
  53 ->   50 [penwidth=1];
  53 ->   51 [penwidth=3];
  54 ->   51 [penwidth=1];
  54 ->   53 [penwidth=1];
  54 ->   54 [penwidth=3];
  55 ->   51 [penwidth=3];
  55 ->   52 [penwidth=1];
  55 ->   54 [penwidth=3];
  56 ->   54 [penwidth=3];
  56 ->   55 [penwidth=1];
}
